{
  "formatVersion": 1,
  "database": {
    "version": 6,
    "identityHash": "876c79e9fd341968e0a83486604eaee0",
    "entities": [
      {
        "tableName": "map",
        "createSql": "CREATE TABLE IF NOT EXISTS `${TABLE_NAME}` (`name` TEXT NOT NULL, `path` TEXT NOT NULL, `enable` INTEGER NOT NULL, `order` INTEGER NOT NULL, `visible` INTEGER NOT NULL, `alpha` REAL NOT NULL, `minZoom` REAL NOT NULL, `maxZoom` REAL NOT NULL, `groupName` TEXT, PRIMARY KEY(`name`))",
        "fields": [
          {
            "fieldPath": "name",
            "columnName": "name",
            "affinity": "TEXT",
            "notNull": true
          },
          {
            "fieldPath": "path",
            "columnName": "path",
            "affinity": "TEXT",
            "notNull": true
          },
          {
            "fieldPath": "enable",
            "columnName": "enable",
            "affinity": "INTEGER",
            "notNull": true
          },
          {
            "fieldPath": "order",
            "columnName": "order",
            "affinity": "INTEGER",
            "notNull": true
          },
          {
            "fieldPath": "visible",
            "columnName": "visible",
            "affinity": "INTEGER",
            "notNull": true
          },
          {
            "fieldPath": "alpha",
            "columnName": "alpha",
            "affinity": "REAL",
            "notNull": true
          },
          {
            "fieldPath": "minZoom",
            "columnName": "minZoom",
            "affinity": "REAL",
            "notNull": true
          },
          {
            "fieldPath": "maxZoom",
            "columnName": "maxZoom",
            "affinity": "REAL",
            "notNull": true
          },
          {
            "fieldPath": "groupName",
            "columnName": "groupName",
            "affinity": "TEXT",
            "notNull": false
          }
        ],
        "primaryKey": {
          "columnNames": [
            "name"
          ],
          "autoGenerate": false
        },
        "indices": [],
        "foreignKeys": []
      },
      {
        "tableName": "track",
        "createSql": "CREATE TABLE IF NOT EXISTS `${TABLE_NAME}` (`name` TEXT NOT NULL, `path` TEXT NOT NULL, `visible` INTEGER NOT NULL, `color` TEXT NOT NULL, `created` INTEGER NOT NULL, `updated` INTEGER NOT NULL, `id` INTEGER PRIMARY KEY AUTOINCREMENT NOT NULL)",
        "fields": [
          {
            "fieldPath": "name",
            "columnName": "name",
            "affinity": "TEXT",
            "notNull": true
          },
          {
            "fieldPath": "path",
            "columnName": "path",
            "affinity": "TEXT",
            "notNull": true
          },
          {
            "fieldPath": "visible",
            "columnName": "visible",
            "affinity": "INTEGER",
            "notNull": true
          },
          {
            "fieldPath": "color",
            "columnName": "color",
            "affinity": "TEXT",
            "notNull": true
          },
          {
            "fieldPath": "created",
            "columnName": "created",
            "affinity": "INTEGER",
            "notNull": true
          },
          {
            "fieldPath": "updated",
            "columnName": "updated",
            "affinity": "INTEGER",
            "notNull": true
          },
          {
            "fieldPath": "id",
            "columnName": "id",
            "affinity": "INTEGER",
            "notNull": true
          }
        ],
        "primaryKey": {
          "columnNames": [
            "id"
          ],
          "autoGenerate": true
        },
        "indices": [],
        "foreignKeys": []
      }
    ],
    "views": [],
    "setupQueries": [
      "CREATE TABLE IF NOT EXISTS room_master_table (id INTEGER PRIMARY KEY,identity_hash TEXT)",
      "INSERT OR REPLACE INTO room_master_table (id,identity_hash) VALUES(42, '876c79e9fd341968e0a83486604eaee0')"
    ]
  }
}