{
  "$schema": "https://docs.renovatebot.com/renovate-schema.json",
  "packageRules": [
    {
      "matchUpdateTypes": ["major", "minor", "patch"]
    }
  ],
  "extends": [
    "config:base", ":disableDependencyDashboard"
  ],
  "prConcurrentLimit": 0
}
